{
"instructions_readme": "1) Open Chrome, 2) go to chrome://tracing, 3) click Load, 4) navigate to this file.",

"traceEvents":[
{ "pid": 1, "tid": 1, "ph": "M", "name": "thread_name", "args": { "name": "" } },
{ "pid": 1, "tid": 1, "ts": 4.4999998062849, "dur": 33038570.3125, "ph": "X", "name": "il2cpp.exe", "args": { "durationMS": 33038.5703125, "detail": "" } },
{ "pid": 1, "tid": 1, "ts": 291671.508789063, "dur": 32742126.953125, "ph": "X", "name": "ConvertAssemblies", "args": { "durationMS": 32742.126953125, "detail": "" } },
{ "pid": 1, "tid": 1, "ts": 352132.110595703, "dur": 201438.690185547, "ph": "X", "name": "Collect assemblies to convert", "args": { "durationMS": 201.438690185547, "detail": "" } },
{ "pid": 1, "tid": 1, "ts": 553955.993652344, "dur": 178667.495727539, "ph": "X", "name": "RegisterCorlib", "args": { "durationMS": 178.667495727539, "detail": "" } },
{ "pid": 1, "tid": 1, "ts": 733244.079589844, "dur": 141616.287231445, "ph": "X", "name": "PreProcessIL", "args": { "durationMS": 141.616287231445, "detail": "" } },
{ "pid": 1, "tid": 1, "ts": 733244.873046875, "dur": 36668.3006286621, "ph": "X", "name": "Inject base types and finalizers into COM and Windows Runtime types", "args": { "durationMS": 36.6683006286621, "detail": "" } },
{ "pid": 1, "tid": 1, "ts": 733901.977539063, "dur": 26743.200302124, "ph": "X", "name": "ModifyCOMAndWindowsRuntimeTypes in assembly", "args": { "durationMS": 26.743200302124, "detail": "mscorlib" } },
{ "pid": 1, "tid": 1, "ts": 760647.338867188, "dur": 4063.00020217896, "ph": "X", "name": "ModifyCOMAndWindowsRuntimeTypes in assembly", "args": { "durationMS": 4.06300020217896, "detail": "System.Configuration" } },
{ "pid": 1, "tid": 1, "ts": 765746.398925781, "dur": 2061.80000305176, "ph": "X", "name": "ModifyCOMAndWindowsRuntimeTypes in assembly", "args": { "durationMS": 2.06180000305176, "detail": "UnityEngine.CoreModule" } },
{ "pid": 1, "tid": 1, "ts": 768169.43359375, "dur": 1274.19996261597, "ph": "X", "name": "ModifyCOMAndWindowsRuntimeTypes in assembly", "args": { "durationMS": 1.27419996261597, "detail": "UnityEngine.UI" } },
{ "pid": 1, "tid": 1, "ts": 769913.513183594, "dur": 104944.694519043, "ph": "X", "name": "ApplyDefaultMarshalAsAttribute", "args": { "durationMS": 104.944694519043, "detail": "" } },
{ "pid": 1, "tid": 1, "ts": 770888.916015625, "dur": 70848.3963012695, "ph": "X", "name": "ApplyDefaultMarshalAsAttributeVisitor in assembly", "args": { "durationMS": 70.8483963012695, "detail": "mscorlib" } },
{ "pid": 1, "tid": 1, "ts": 841807.922363281, "dur": 7707.39984512329, "ph": "X", "name": "ApplyDefaultMarshalAsAttributeVisitor in assembly", "args": { "durationMS": 7.70739984512329, "detail": "System" } },
{ "pid": 1, "tid": 1, "ts": 849911.193847656, "dur": 3373.60000610352, "ph": "X", "name": "ApplyDefaultMarshalAsAttributeVisitor in assembly", "args": { "durationMS": 3.37360000610352, "detail": "UnityEngine.CoreModule" } },
{ "pid": 1, "tid": 1, "ts": 853718.505859375, "dur": 1054.29995059967, "ph": "X", "name": "ApplyDefaultMarshalAsAttributeVisitor in assembly", "args": { "durationMS": 1.05429995059967, "detail": "UnityEngine.IMGUIModule" } },
{ "pid": 1, "tid": 1, "ts": 855990.112304688, "dur": 350.400000810623, "ph": "X", "name": "ApplyDefaultMarshalAsAttributeVisitor in assembly", "args": { "durationMS": 0.350400000810623, "detail": "UnityEngine.GameCenterModule" } },
{ "pid": 1, "tid": 1, "ts": 856341.186523438, "dur": 3176.59997940063, "ph": "X", "name": "ApplyDefaultMarshalAsAttributeVisitor in assembly", "args": { "durationMS": 3.17659997940063, "detail": "UnityEngine.UI" } },
{ "pid": 1, "tid": 1, "ts": 859518.676757813, "dur": 12324.3999481201, "ph": "X", "name": "ApplyDefaultMarshalAsAttributeVisitor in assembly", "args": { "durationMS": 12.3243999481201, "detail": "UnityEngine.UNETModule" } },
{ "pid": 1, "tid": 1, "ts": 871942.443847656, "dur": 2834.80000495911, "ph": "X", "name": "ApplyDefaultMarshalAsAttributeVisitor in assembly", "args": { "durationMS": 2.83480000495911, "detail": "com.unity.multiplayer-hlapi.Runtime" } },
{ "pid": 1, "tid": 1, "ts": 875255.615234375, "dur": 18234.899520874, "ph": "X", "name": "WriteResources", "args": { "durationMS": 18.234899520874, "detail": "" } },
{ "pid": 1, "tid": 1, "ts": 893981.872558594, "dur": 130226.409912109, "ph": "X", "name": "CopyEtcFolder", "args": { "durationMS": 130.226409912109, "detail": "" } },
{ "pid": 1, "tid": 1, "ts": 1025116.2109375, "dur": 611266.479492188, "ph": "X", "name": "PreProcessStage", "args": { "durationMS": 611.266479492188, "detail": "" } },
{ "pid": 1, "tid": 1, "ts": 1636392.578125, "dur": 10370.3002929688, "ph": "X", "name": "Debugger Sequence Points", "args": { "durationMS": 10.3703002929688, "detail": "" } },
{ "pid": 1, "tid": 1, "ts": 1648488.64746094, "dur": 3710984.61914063, "ph": "X", "name": "Generics Collection", "args": { "durationMS": 3710.98461914063, "detail": "" } },
{ "pid": 1, "tid": 1, "ts": 1648489.37988281, "dur": 3693747.31445313, "ph": "X", "name": "GenericsCollector.Collect", "args": { "durationMS": 3693.74731445313, "detail": "" } },
{ "pid": 1, "tid": 1, "ts": 5342237.3046875, "dur": 13438.4002685547, "ph": "X", "name": "CollectGenericVirtualMethods.Collect", "args": { "durationMS": 13.4384002685547, "detail": "" } },
{ "pid": 1, "tid": 1, "ts": 5355676.7578125, "dur": 3139.89996910095, "ph": "X", "name": "AddExtraTypes", "args": { "durationMS": 3.13989996910095, "detail": "" } },
{ "pid": 1, "tid": 1, "ts": 5359473.6328125, "dur": 4556.79988861084, "ph": "X", "name": "Add Windows Runtime type names", "args": { "durationMS": 4.55679988861084, "detail": "" } },
{ "pid": 1, "tid": 1, "ts": 5359473.6328125, "dur": 4555.20009994507, "ph": "X", "name": "Add Windows Runtime type names", "args": { "durationMS": 4.55520009994507, "detail": "" } },
{ "pid": 1, "tid": 1, "ts": 5456498.046875, "dur": 12920087.890625, "ph": "X", "name": "AllAssemblyConversion", "args": { "durationMS": 12920.087890625, "detail": "" } },
{ "pid": 1, "tid": 1, "ts": 5468711.9140625, "dur": 6843636.23046875, "ph": "X", "name": "Convert", "args": { "durationMS": 6843.63623046875, "detail": "mscorlib" } },
{ "pid": 1, "tid": 1, "ts": 5468716.796875, "dur": 6843630.37109375, "ph": "X", "name": "Code", "args": { "durationMS": 6843.63037109375, "detail": "" } },
{ "pid": 1, "tid": 1, "ts": 5470247.0703125, "dur": 6842099.12109375, "ph": "X", "name": "Methods", "args": { "durationMS": 6842.09912109375, "detail": "Definitions" } },
{ "pid": 1, "tid": 1, "ts": 12322292.96875, "dur": 6928.40003967285, "ph": "X", "name": "Convert", "args": { "durationMS": 6.92840003967285, "detail": "System.Configuration" } },
{ "pid": 1, "tid": 1, "ts": 12322296.875, "dur": 6923.60019683838, "ph": "X", "name": "Code", "args": { "durationMS": 6.92360019683838, "detail": "" } },
{ "pid": 1, "tid": 1, "ts": 12322326.171875, "dur": 6894.00005340576, "ph": "X", "name": "Methods", "args": { "durationMS": 6.89400005340576, "detail": "Definitions" } },
{ "pid": 1, "tid": 1, "ts": 12337913.0859375, "dur": 3144.79994773865, "ph": "X", "name": "Convert", "args": { "durationMS": 3.14479994773865, "detail": "System.Xml" } },
{ "pid": 1, "tid": 1, "ts": 12337918.9453125, "dur": 3139.19997215271, "ph": "X", "name": "Code", "args": { "durationMS": 3.13919997215271, "detail": "" } },
{ "pid": 1, "tid": 1, "ts": 12337926.7578125, "dur": 3129.60004806519, "ph": "X", "name": "Methods", "args": { "durationMS": 3.12960004806519, "detail": "Definitions" } },
{ "pid": 1, "tid": 1, "ts": 12349303.7109375, "dur": 876960.876464844, "ph": "X", "name": "Convert", "args": { "durationMS": 876.960876464844, "detail": "System" } },
{ "pid": 1, "tid": 1, "ts": 12349308.59375, "dur": 876955.871582031, "ph": "X", "name": "Code", "args": { "durationMS": 876.955871582031, "detail": "" } },
{ "pid": 1, "tid": 1, "ts": 12349397.4609375, "dur": 876866.455078125, "ph": "X", "name": "Methods", "args": { "durationMS": 876.866455078125, "detail": "Definitions" } },
{ "pid": 1, "tid": 1, "ts": 13236689.453125, "dur": 19371.9005584717, "ph": "X", "name": "Convert", "args": { "durationMS": 19.3719005584717, "detail": "Mono.Security" } },
{ "pid": 1, "tid": 1, "ts": 13236694.3359375, "dur": 19366.4989471436, "ph": "X", "name": "Code", "args": { "durationMS": 19.3664989471436, "detail": "" } },
{ "pid": 1, "tid": 1, "ts": 13236706.0546875, "dur": 19354.2003631592, "ph": "X", "name": "Methods", "args": { "durationMS": 19.3542003631592, "detail": "Definitions" } },
{ "pid": 1, "tid": 1, "ts": 13264911.1328125, "dur": 3035.20011901855, "ph": "X", "name": "Convert", "args": { "durationMS": 3.03520011901855, "detail": "System.Core" } },
{ "pid": 1, "tid": 1, "ts": 13264916.015625, "dur": 3029.7999382019, "ph": "X", "name": "Code", "args": { "durationMS": 3.0297999382019, "detail": "" } },
{ "pid": 1, "tid": 1, "ts": 13264931.640625, "dur": 3014.69993591309, "ph": "X", "name": "Methods", "args": { "durationMS": 3.01469993591309, "detail": "Definitions" } },
{ "pid": 1, "tid": 1, "ts": 13276563.4765625, "dur": 38294.7006225586, "ph": "X", "name": "Convert", "args": { "durationMS": 38.2947006225586, "detail": "UnityEngine.SharedInternalsModule" } },
{ "pid": 1, "tid": 1, "ts": 13276568.359375, "dur": 38289.1998291016, "ph": "X", "name": "Code", "args": { "durationMS": 38.2891998291016, "detail": "" } },
{ "pid": 1, "tid": 1, "ts": 13276588.8671875, "dur": 38267.1012878418, "ph": "X", "name": "Methods", "args": { "durationMS": 38.2671012878418, "detail": "Definitions" } },
{ "pid": 1, "tid": 1, "ts": 13326284.1796875, "dur": 707052.307128906, "ph": "X", "name": "Convert", "args": { "durationMS": 707.052307128906, "detail": "UnityEngine.CoreModule" } },
{ "pid": 1, "tid": 1, "ts": 13326289.0625, "dur": 707046.325683594, "ph": "X", "name": "Code", "args": { "durationMS": 707.046325683594, "detail": "" } },
{ "pid": 1, "tid": 1, "ts": 13326657.2265625, "dur": 706678.344726563, "ph": "X", "name": "Methods", "args": { "durationMS": 706.678344726563, "detail": "Definitions" } },
{ "pid": 1, "tid": 1, "ts": 14041777.34375, "dur": 1060.40000915527, "ph": "X", "name": "Convert", "args": { "durationMS": 1.06040000915527, "detail": "System.Diagnostics.StackTrace" } },
{ "pid": 1, "tid": 1, "ts": 14041782.2265625, "dur": 1054.80003356934, "ph": "X", "name": "Code", "args": { "durationMS": 1.05480003356934, "detail": "" } },
{ "pid": 1, "tid": 1, "ts": 14041791.015625, "dur": 1047.00005054474, "ph": "X", "name": "Methods", "args": { "durationMS": 1.04700005054474, "detail": "Definitions" } },
{ "pid": 1, "tid": 1, "ts": 14052294.921875, "dur": 1574.49996471405, "ph": "X", "name": "Convert", "args": { "durationMS": 1.57449996471405, "detail": "System.Globalization.Extensions" } },
{ "pid": 1, "tid": 1, "ts": 14052299.8046875, "dur": 1569.30005550385, "ph": "X", "name": "Code", "args": { "durationMS": 1.56930005550385, "detail": "" } },
{ "pid": 1, "tid": 1, "ts": 14052309.5703125, "dur": 1560.29999256134, "ph": "X", "name": "Methods", "args": { "durationMS": 1.56029999256134, "detail": "Definitions" } },
{ "pid": 1, "tid": 1, "ts": 14063833.984375, "dur": 35995.7008361816, "ph": "X", "name": "Convert", "args": { "durationMS": 35.9957008361816, "detail": "UnityEngine.TextRenderingModule" } },
{ "pid": 1, "tid": 1, "ts": 14063840.8203125, "dur": 35990.1008605957, "ph": "X", "name": "Code", "args": { "durationMS": 35.9901008605957, "detail": "" } },
{ "pid": 1, "tid": 1, "ts": 14063855.46875, "dur": 35972.3014831543, "ph": "X", "name": "Methods", "args": { "durationMS": 35.9723014831543, "detail": "Definitions" } },
{ "pid": 1, "tid": 1, "ts": 14108197.265625, "dur": 53348.1979370117, "ph": "X", "name": "Convert", "args": { "durationMS": 53.3481979370117, "detail": "UnityEngine.AnimationModule" } },
{ "pid": 1, "tid": 1, "ts": 14108202.1484375, "dur": 53342.700958252, "ph": "X", "name": "Code", "args": { "durationMS": 53.342700958252, "detail": "" } },
{ "pid": 1, "tid": 1, "ts": 14108226.5625, "dur": 53318.4013366699, "ph": "X", "name": "Methods", "args": { "durationMS": 53.3184013366699, "detail": "Definitions" } },
{ "pid": 1, "tid": 1, "ts": 14170131.8359375, "dur": 280737.091064453, "ph": "X", "name": "Convert", "args": { "durationMS": 280.737091064453, "detail": "UnityEngine.IMGUIModule" } },
{ "pid": 1, "tid": 1, "ts": 14170138.671875, "dur": 280731.201171875, "ph": "X", "name": "Code", "args": { "durationMS": 280.731201171875, "detail": "" } },
{ "pid": 1, "tid": 1, "ts": 14170161.1328125, "dur": 280706.085205078, "ph": "X", "name": "Methods", "args": { "durationMS": 280.706085205078, "detail": "Definitions" } },
{ "pid": 1, "tid": 1, "ts": 14460741.2109375, "dur": 24812.7002716064, "ph": "X", "name": "Convert", "args": { "durationMS": 24.8127002716064, "detail": "UnityEngine.InputLegacyModule" } },
{ "pid": 1, "tid": 1, "ts": 14460746.09375, "dur": 24807.9013824463, "ph": "X", "name": "Code", "args": { "durationMS": 24.8079013824463, "detail": "" } },
{ "pid": 1, "tid": 1, "ts": 14460757.8125, "dur": 24794.0998077393, "ph": "X", "name": "Methods", "args": { "durationMS": 24.7940998077393, "detail": "Definitions" } },
{ "pid": 1, "tid": 1, "ts": 14493997.0703125, "dur": 3824.70011711121, "ph": "X", "name": "Convert", "args": { "durationMS": 3.82470011711121, "detail": "UnityEngine.JSONSerializeModule" } },
{ "pid": 1, "tid": 1, "ts": 14494001.953125, "dur": 3819.49996948242, "ph": "X", "name": "Code", "args": { "durationMS": 3.81949996948242, "detail": "" } },
{ "pid": 1, "tid": 1, "ts": 14494010.7421875, "dur": 3809.9000453949, "ph": "X", "name": "Methods", "args": { "durationMS": 3.8099000453949, "detail": "Definitions" } },
{ "pid": 1, "tid": 1, "ts": 14506696.2890625, "dur": 39264.7018432617, "ph": "X", "name": "Convert", "args": { "durationMS": 39.2647018432617, "detail": "UnityEngine.Physics2DModule" } },
{ "pid": 1, "tid": 1, "ts": 14506701.171875, "dur": 39259.3002319336, "ph": "X", "name": "Code", "args": { "durationMS": 39.2593002319336, "detail": "" } },
{ "pid": 1, "tid": 1, "ts": 14506711.9140625, "dur": 39247.1008300781, "ph": "X", "name": "Methods", "args": { "durationMS": 39.2471008300781, "detail": "Definitions" } },
{ "pid": 1, "tid": 1, "ts": 14557490.234375, "dur": 40409.1987609863, "ph": "X", "name": "Convert", "args": { "durationMS": 40.4091987609863, "detail": "UnityEngine.PhysicsModule" } },
{ "pid": 1, "tid": 1, "ts": 14557495.1171875, "dur": 40402.5001525879, "ph": "X", "name": "Code", "args": { "durationMS": 40.4025001525879, "detail": "" } },
{ "pid": 1, "tid": 1, "ts": 14557508.7890625, "dur": 40387.5007629395, "ph": "X", "name": "Methods", "args": { "durationMS": 40.3875007629395, "detail": "Definitions" } },
{ "pid": 1, "tid": 1, "ts": 14607426.7578125, "dur": 33088.1004333496, "ph": "X", "name": "Convert", "args": { "durationMS": 33.0881004333496, "detail": "UnityEngine.UIModule" } },
{ "pid": 1, "tid": 1, "ts": 14607431.640625, "dur": 33082.8018188477, "ph": "X", "name": "Code", "args": { "durationMS": 33.0828018188477, "detail": "" } },
{ "pid": 1, "tid": 1, "ts": 14607450.1953125, "dur": 33065.299987793, "ph": "X", "name": "Methods", "args": { "durationMS": 33.065299987793, "detail": "Definitions" } },
{ "pid": 1, "tid": 1, "ts": 14651249.0234375, "dur": 85662.3992919922, "ph": "X", "name": "Convert", "args": { "durationMS": 85.6623992919922, "detail": "UnityEngine.UnityWebRequestModule" } },
{ "pid": 1, "tid": 1, "ts": 14651253.90625, "dur": 85656.6009521484, "ph": "X", "name": "Code", "args": { "durationMS": 85.6566009521484, "detail": "" } },
{ "pid": 1, "tid": 1, "ts": 14651270.5078125, "dur": 85640.7012939453, "ph": "X", "name": "Methods", "args": { "durationMS": 85.6407012939453, "detail": "Definitions" } },
{ "pid": 1, "tid": 1, "ts": 14746418.9453125, "dur": 1339.30003643036, "ph": "X", "name": "Convert", "args": { "durationMS": 1.33930003643036, "detail": "netstandard" } },
{ "pid": 1, "tid": 1, "ts": 14746423.828125, "dur": 1334.49995517731, "ph": "X", "name": "Code", "args": { "durationMS": 1.33449995517731, "detail": "" } },
{ "pid": 1, "tid": 1, "ts": 14746430.6640625, "dur": 1326.90000534058, "ph": "X", "name": "Methods", "args": { "durationMS": 1.32690000534058, "detail": "Definitions" } },
{ "pid": 1, "tid": 1, "ts": 14757500, "dur": 20162.2009277344, "ph": "X", "name": "Convert", "args": { "durationMS": 20.1622009277344, "detail": "UnityEngine.AudioModule" } },
{ "pid": 1, "tid": 1, "ts": 14757504.8828125, "dur": 20156.7993164063, "ph": "X", "name": "Code", "args": { "durationMS": 20.1567993164063, "detail": "" } },
{ "pid": 1, "tid": 1, "ts": 14757519.53125, "dur": 20140.1996612549, "ph": "X", "name": "Methods", "args": { "durationMS": 20.1401996612549, "detail": "Definitions" } },
{ "pid": 1, "tid": 1, "ts": 14787916.9921875, "dur": 79039.2990112305, "ph": "X", "name": "Convert", "args": { "durationMS": 79.0392990112305, "detail": "UnityEngine.GameCenterModule" } },
{ "pid": 1, "tid": 1, "ts": 14787924.8046875, "dur": 79032.1044921875, "ph": "X", "name": "Code", "args": { "durationMS": 79.0321044921875, "detail": "" } },
{ "pid": 1, "tid": 1, "ts": 14787951.171875, "dur": 79005.4016113281, "ph": "X", "name": "Methods", "args": { "durationMS": 79.0054016113281, "detail": "Definitions" } },
{ "pid": 1, "tid": 1, "ts": 14875462.890625, "dur": 1684147.21679688, "ph": "X", "name": "Convert", "args": { "durationMS": 1684.14721679688, "detail": "UnityEngine.UI" } },
{ "pid": 1, "tid": 1, "ts": 14875469.7265625, "dur": 1684141.72363281, "ph": "X", "name": "Code", "args": { "durationMS": 1684.14172363281, "detail": "" } },
{ "pid": 1, "tid": 1, "ts": 14875585.9375, "dur": 1684024.4140625, "ph": "X", "name": "Methods", "args": { "durationMS": 1684.0244140625, "detail": "Definitions" } },
{ "pid": 1, "tid": 1, "ts": 16570378.90625, "dur": 194021.087646484, "ph": "X", "name": "Convert", "args": { "durationMS": 194.021087646484, "detail": "UnityEngine.UNETModule" } },
{ "pid": 1, "tid": 1, "ts": 16570386.71875, "dur": 194015.701293945, "ph": "X", "name": "Code", "args": { "durationMS": 194.015701293945, "detail": "" } },
{ "pid": 1, "tid": 1, "ts": 16570417.96875, "dur": 193982.10144043, "ph": "X", "name": "Methods", "args": { "durationMS": 193.98210144043, "detail": "Definitions" } },
{ "pid": 1, "tid": 1, "ts": 16773792.96875, "dur": 12824.0995407104, "ph": "X", "name": "Convert", "args": { "durationMS": 12.8240995407104, "detail": "UnityEngine.UnityAnalyticsModule" } },
{ "pid": 1, "tid": 1, "ts": 16773798.828125, "dur": 12819.0002441406, "ph": "X", "name": "Code", "args": { "durationMS": 12.8190002441406, "detail": "" } },
{ "pid": 1, "tid": 1, "ts": 16773812.5, "dur": 12805.0003051758, "ph": "X", "name": "Methods", "args": { "durationMS": 12.8050003051758, "detail": "Definitions" } },
{ "pid": 1, "tid": 1, "ts": 16796595.703125, "dur": 1559.49997901917, "ph": "X", "name": "Convert", "args": { "durationMS": 1.55949997901917, "detail": "UnityEngine" } },
{ "pid": 1, "tid": 1, "ts": 16796601.5625, "dur": 1552.70004272461, "ph": "X", "name": "Code", "args": { "durationMS": 1.55270004272461, "detail": "" } },
{ "pid": 1, "tid": 1, "ts": 16796609.375, "dur": 1542.19996929169, "ph": "X", "name": "Methods", "args": { "durationMS": 1.54219996929169, "detail": "Definitions" } },
{ "pid": 1, "tid": 1, "ts": 16808164.0625, "dur": 1531675.65917969, "ph": "X", "name": "Convert", "args": { "durationMS": 1531.67565917969, "detail": "com.unity.multiplayer-hlapi.Runtime" } },
{ "pid": 1, "tid": 1, "ts": 16808167.96875, "dur": 1531670.53222656, "ph": "X", "name": "Code", "args": { "durationMS": 1531.67053222656, "detail": "" } },
{ "pid": 1, "tid": 1, "ts": 16808269.53125, "dur": 1531567.74902344, "ph": "X", "name": "Methods", "args": { "durationMS": 1531.56774902344, "detail": "Definitions" } },
{ "pid": 1, "tid": 1, "ts": 18350480.46875, "dur": 26098.4992980957, "ph": "X", "name": "Convert", "args": { "durationMS": 26.0984992980957, "detail": "Assembly-CSharp" } },
{ "pid": 1, "tid": 1, "ts": 18350486.328125, "dur": 26092.4987792969, "ph": "X", "name": "Code", "args": { "durationMS": 26.0924987792969, "detail": "" } },
{ "pid": 1, "tid": 1, "ts": 18350501.953125, "dur": 26078.3996582031, "ph": "X", "name": "Methods", "args": { "durationMS": 26.0783996582031, "detail": "Definitions" } },
{ "pid": 1, "tid": 1, "ts": 18376587.890625, "dur": 8887190.4296875, "ph": "X", "name": "WriteGenerics", "args": { "durationMS": 8887.1904296875, "detail": "" } },
{ "pid": 1, "tid": 1, "ts": 18392548.828125, "dur": 28117.5994873047, "ph": "X", "name": "Arrays Definitions", "args": { "durationMS": 28.1175994873047, "detail": "" } },
{ "pid": 1, "tid": 1, "ts": 18421458.984375, "dur": 1741326.171875, "ph": "X", "name": "GenericInstanceMethods", "args": { "durationMS": 1741.326171875, "detail": "" } },
{ "pid": 1, "tid": 1, "ts": 20162787.109375, "dur": 6329868.1640625, "ph": "X", "name": "GenericInstanceTypes", "args": { "durationMS": 6329.8681640625, "detail": "" } },
{ "pid": 1, "tid": 1, "ts": 26493087.890625, "dur": 770666.50390625, "ph": "X", "name": "GenericComDefinitions", "args": { "durationMS": 770.66650390625, "detail": "" } },
{ "pid": 1, "tid": 1, "ts": 27287791.015625, "dur": 684199.096679688, "ph": "X", "name": "MetadataCollector", "args": { "durationMS": 684.199096679688, "detail": "" } },
{ "pid": 1, "tid": 1, "ts": 27292712.890625, "dur": 21347.2995758057, "ph": "X", "name": "UpdateEmptyTokens", "args": { "durationMS": 21.3472995758057, "detail": "" } },
{ "pid": 1, "tid": 1, "ts": 27318214.84375, "dur": 23739.9005889893, "ph": "X", "name": "ValidateTokens", "args": { "durationMS": 23.7399005889893, "detail": "" } },
{ "pid": 1, "tid": 1, "ts": 27972687.5, "dur": 10654.9997329712, "ph": "X", "name": "Write COM Callable Wrappers", "args": { "durationMS": 10.6549997329712, "detail": "" } },
{ "pid": 1, "tid": 1, "ts": 27982332.03125, "dur": 1008.20004940033, "ph": "X", "name": "Collect implemented projected interfaces by COM Callable Wrappers", "args": { "durationMS": 1.00820004940033, "detail": "" } },
{ "pid": 1, "tid": 1, "ts": 27983343.75, "dur": 5044329.58984375, "ph": "X", "name": "Metadata", "args": { "durationMS": 5044.32958984375, "detail": "Global" } },
{ "pid": 1, "tid": 1, "ts": 28194589.84375, "dur": 885143.249511719, "ph": "X", "name": "Attributes", "args": { "durationMS": 885.143249511719, "detail": "" } },
{ "pid": 1, "tid": 1, "ts": 29604232.421875, "dur": 804711.303710938, "ph": "X", "name": "WriteCodeRegistration", "args": { "durationMS": 804.711303710938, "detail": "" } },
{ "pid": 1, "tid": 1, "ts": 29720546.875, "dur": 12609.1003417969, "ph": "X", "name": "GenericContextCollector", "args": { "durationMS": 12.6091003417969, "detail": "Collect" } },
{ "pid": 1, "tid": 1, "ts": 29760253.90625, "dur": 472.699999809265, "ph": "X", "name": "GenericContextCollector", "args": { "durationMS": 0.472699999809265, "detail": "Collect" } },
{ "pid": 1, "tid": 1, "ts": 29784722.65625, "dur": 566.799998283386, "ph": "X", "name": "GenericContextCollector", "args": { "durationMS": 0.566799998283386, "detail": "Collect" } },
{ "pid": 1, "tid": 1, "ts": 29877203.125, "dur": 576.799988746643, "ph": "X", "name": "GenericContextCollector", "args": { "durationMS": 0.576799988746643, "detail": "Collect" } },
{ "pid": 1, "tid": 1, "ts": 29944292.96875, "dur": 427.700012922287, "ph": "X", "name": "GenericContextCollector", "args": { "durationMS": 0.427700012922287, "detail": "Collect" } },
{ "pid": 1, "tid": 1, "ts": 29951337.890625, "dur": 7697.89981842041, "ph": "X", "name": "ReversePInvokerWrapperTable", "args": { "durationMS": 7.69789981842041, "detail": "Il2CppReversePInvokeWrapperTable.cpp" } },
{ "pid": 1, "tid": 1, "ts": 29960117.1875, "dur": 242727.600097656, "ph": "X", "name": "GenericMethodPointerTable", "args": { "durationMS": 242.727600097656, "detail": "Il2CppGenericMethodPointerTable.cpp" } },
{ "pid": 1, "tid": 1, "ts": 30203435.546875, "dur": 176045.196533203, "ph": "X", "name": "InvokerTable", "args": { "durationMS": 176.045196533203, "detail": "Il2CppInvokerTable.cpp" } },
{ "pid": 1, "tid": 1, "ts": 30382021.484375, "dur": 18508.8996887207, "ph": "X", "name": "InteropDataTable", "args": { "durationMS": 18.5088996887207, "detail": "Il2CppInteropDataTable.cpp" } },
{ "pid": 1, "tid": 1, "ts": 30408947.265625, "dur": 2618725.09765625, "ph": "X", "name": "WriteMetadata", "args": { "durationMS": 2618.72509765625, "detail": "" } },
{ "pid": 1, "tid": 1, "ts": 30616587.890625, "dur": 6878.6997795105, "ph": "X", "name": "Metadata", "args": { "durationMS": 6.8786997795105, "detail": "Collect string literals" } },
{ "pid": 1, "tid": 1, "ts": 30860888.671875, "dur": 190553.207397461, "ph": "X", "name": "GenericClasses", "args": { "durationMS": 190.553207397461, "detail": "" } },
{ "pid": 1, "tid": 1, "ts": 31051441.40625, "dur": 55890.8042907715, "ph": "X", "name": "GenericInst2", "args": { "durationMS": 55.8908042907715, "detail": "" } },
{ "pid": 1, "tid": 1, "ts": 31107337.890625, "dur": 876865.234375, "ph": "X", "name": "GenericMethods", "args": { "durationMS": 876.865234375, "detail": "" } },
{ "pid": 1, "tid": 1, "ts": 31984203.125, "dur": 303872.894287109, "ph": "X", "name": "Il2CppTypes", "args": { "durationMS": 303.872894287109, "detail": "" } },
{ "pid": 1, "tid": 1, "ts": 32288076.171875, "dur": 114053.001403809, "ph": "X", "name": "GenericMethods", "args": { "durationMS": 114.053001403809, "detail": "" } },
{ "pid": 1, "tid": 1, "ts": 32402128.90625, "dur": 251292.80090332, "ph": "X", "name": "CompilerCalculateTypeValues", "args": { "durationMS": 251.29280090332, "detail": "" } },
{ "pid": 1, "tid": 1, "ts": 32653423.828125, "dur": 6796.0000038147, "ph": "X", "name": "Registration", "args": { "durationMS": 6.7960000038147, "detail": "" } },
{ "pid": 1, "tid": 1, "ts": 32661585.9375, "dur": 12613.8000488281, "ph": "X", "name": "StringLiteralWriter", "args": { "durationMS": 12.6138000488281, "detail": "" } },
{ "pid": 1, "tid": 1, "ts": 32674828.125, "dur": 5762.70008087158, "ph": "X", "name": "Metadata Strings", "args": { "durationMS": 5.76270008087158, "detail": "" } },
{ "pid": 1, "tid": 1, "ts": 32680597.65625, "dur": 5226.6001701355, "ph": "X", "name": "Events", "args": { "durationMS": 5.2266001701355, "detail": "" } },
{ "pid": 1, "tid": 1, "ts": 32685824.21875, "dur": 10778.6998748779, "ph": "X", "name": "Properties", "args": { "durationMS": 10.7786998748779, "detail": "" } },
{ "pid": 1, "tid": 1, "ts": 32696605.46875, "dur": 121977.897644043, "ph": "X", "name": "Methods", "args": { "durationMS": 121.977897644043, "detail": "" } },
{ "pid": 1, "tid": 1, "ts": 32818585.9375, "dur": 2046.6001033783, "ph": "X", "name": "Parameter Default Values", "args": { "durationMS": 2.0466001033783, "detail": "" } },
{ "pid": 1, "tid": 1, "ts": 32820632.8125, "dur": 3555.79996109009, "ph": "X", "name": "Field Default Values", "args": { "durationMS": 3.55579996109009, "detail": "" } },
{ "pid": 1, "tid": 1, "ts": 32824187.5, "dur": 1007.09998607635, "ph": "X", "name": "Field and Parameter Default Values Data", "args": { "durationMS": 1.00709998607635, "detail": "" } },
{ "pid": 1, "tid": 1, "ts": 32825195.3125, "dur": 1797.29998111725, "ph": "X", "name": "Field Marshaled Sizes", "args": { "durationMS": 1.79729998111725, "detail": "" } },
{ "pid": 1, "tid": 1, "ts": 32827000, "dur": 29935.1005554199, "ph": "X", "name": "Parameters", "args": { "durationMS": 29.9351005554199, "detail": "" } },
{ "pid": 1, "tid": 1, "ts": 32856937.5, "dur": 17183.1016540527, "ph": "X", "name": "Fields", "args": { "durationMS": 17.1831016540527, "detail": "" } },
{ "pid": 1, "tid": 1, "ts": 32874121.09375, "dur": 3927.79994010925, "ph": "X", "name": "Generic Parameters", "args": { "durationMS": 3.92779994010925, "detail": "" } },
{ "pid": 1, "tid": 1, "ts": 32878046.875, "dur": 2951.90000534058, "ph": "X", "name": "Generic Parameter Constraints", "args": { "durationMS": 2.95190000534058, "detail": "" } },
{ "pid": 1, "tid": 1, "ts": 32881000, "dur": 3175.69994926453, "ph": "X", "name": "Generic Containers", "args": { "durationMS": 3.17569994926453, "detail": "" } },
{ "pid": 1, "tid": 1, "ts": 32884175.78125, "dur": 935.100018978119, "ph": "X", "name": "Nested Types", "args": { "durationMS": 0.935100018978119, "detail": "" } },
{ "pid": 1, "tid": 1, "ts": 32885113.28125, "dur": 935.899972915649, "ph": "X", "name": "Interfaces", "args": { "durationMS": 0.935899972915649, "detail": "" } },
{ "pid": 1, "tid": 1, "ts": 32886046.875, "dur": 4606.40001296997, "ph": "X", "name": "VTables", "args": { "durationMS": 4.60640001296997, "detail": "" } },
{ "pid": 1, "tid": 1, "ts": 32890656.25, "dur": 3558.00008773804, "ph": "X", "name": "Interface Offsets", "args": { "durationMS": 3.55800008773804, "detail": "" } },
{ "pid": 1, "tid": 1, "ts": 32894218.75, "dur": 94844.6960449219, "ph": "X", "name": "Type Definitions", "args": { "durationMS": 94.8446960449219, "detail": "" } },
{ "pid": 1, "tid": 1, "ts": 32989062.5, "dur": 9158.90026092529, "ph": "X", "name": "Images", "args": { "durationMS": 9.15890026092529, "detail": "" } },
{ "pid": 1, "tid": 1, "ts": 32998226.5625, "dur": 4799.30019378662, "ph": "X", "name": "Assemblies", "args": { "durationMS": 4.79930019378662, "detail": "" } },
{ "pid": 1, "tid": 1, "ts": 33003023.4375, "dur": 3175.89998245239, "ph": "X", "name": "Metadata Usage Lists", "args": { "durationMS": 3.17589998245239, "detail": "" } },
{ "pid": 1, "tid": 1, "ts": 33006199.21875, "dur": 4883.90016555786, "ph": "X", "name": "Metadata Usage Pairs", "args": { "durationMS": 4.88390016555786, "detail": "" } },
{ "pid": 1, "tid": 1, "ts": 33011085.9375, "dur": 668.699979782104, "ph": "X", "name": "Field Refs", "args": { "durationMS": 0.668699979782104, "detail": "" } },
{ "pid": 1, "tid": 1, "ts": 33011757.8125, "dur": 958.100020885468, "ph": "X", "name": "Referenced Assemblies", "args": { "durationMS": 0.958100020885468, "detail": "" } },
{ "pid": 1, "tid": 1, "ts": 33012714.84375, "dur": 2967.00000762939, "ph": "X", "name": "Attribute Types Ranges", "args": { "durationMS": 2.96700000762939, "detail": "" } },
{ "pid": 1, "tid": 1, "ts": 33015683.59375, "dur": 1383.70001316071, "ph": "X", "name": "Attribute Types", "args": { "durationMS": 1.38370001316071, "detail": "" } },
{ "pid": 1, "tid": 1, "ts": 33017066.40625, "dur": 673.399984836578, "ph": "X", "name": "Unresolved Virtual Call Parameter Types", "args": { "durationMS": 0.673399984836578, "detail": "" } },
{ "pid": 1, "tid": 1, "ts": 33017742.1875, "dur": 2122.90000915527, "ph": "X", "name": "Unresolved Virtual Call Parameter Ranges", "args": { "durationMS": 2.12290000915527, "detail": "" } },
{ "pid": 1, "tid": 1, "ts": 33019863.28125, "dur": 1261.29996776581, "ph": "X", "name": "Windows Runtime type names", "args": { "durationMS": 1.26129996776581, "detail": "" } },
{ "pid": 1, "tid": 1, "ts": 33021125, "dur": 3624.90010261536, "ph": "X", "name": "Exported Types", "args": { "durationMS": 3.62490010261536, "detail": "" } }
],
"meta_datetime": "11/23/2019 12:54:13",
"meta_command_line": "\"N:\\Program Files\\UnityEditors\\2019.2.12f1\\Editor\\Data\\il2cpp/build/il2cpp.exe\" --convert-to-cpp --emit-null-checks --enable-array-bounds-check --dotnetprofile=\"unityaot\" --profiler-report --map-file-parser=\"N:/Program Files/UnityEditors/2019.2.12f1/Editor/Data/Tools/MapFileParser/MapFileParser.exe\" --directory=C:/UnityProjects/worker2.0/Temp/StagingArea/Data/Managed --generatedcppdir=C:/UnityProjects/worker2.0/Temp/il2cppOutput/il2cppOutput ",
"meta_command_line_args": "N:\\Program Files\\UnityEditors\\2019.2.12f1\\Editor\\Data\\il2cpp/build/il2cpp.exe --convert-to-cpp --emit-null-checks --enable-array-bounds-check --dotnetprofile=unityaot --profiler-report --map-file-parser=N:/Program Files/UnityEditors/2019.2.12f1/Editor/Data/Tools/MapFileParser/MapFileParser.exe --directory=C:/UnityProjects/worker2.0/Temp/StagingArea/Data/Managed --generatedcppdir=C:/UnityProjects/worker2.0/Temp/il2cppOutput/il2cppOutput",
"meta_user_name": "nikac",
"meta_os_version": "Microsoft Windows NT 6.2.9200.0",
"meta_cpu_count": "8"}
